{
  "colors": [
    { "id": 1, "name": "red" },
    { "id": 2, "name": "blue" },
    { "id": 3, "name": "orange" },
    { "id": 4, "name": "yellow" },
    { "id": 5, "name": "brown" },
    { "id": 6, "name": "purple" },
    { "id": 7, "name": "black" },
    { "id": 8, "name": "white" }
  ],
  "cars": [
  {
    "id": 1,
    "make": "Ford",
    "model": "T",
    "year": 1917,
    "color": "black",
    "price": 350
  },
  {
    "id": 2,
    "make": "Tesla",
    "model": "S",
    "year": 2017,
    "color": "black",
    "price": 120000
  }
] }